[
  {
    "name": "％％源氏名％％",
    "img": "images/free.jpeg"
  },
  {
    "name": "％％源氏名％％",
    "img": "images/free.jpeg"
  },
  {
    "name": "％％源氏名％％",
    "img": "images/free.jpeg"
  },
  {
    "name": "％％源氏名％％",
    "img": "images/free.jpeg"
  },
  {
    "name": "％％源氏名％％",
    "img": "images/free.jpeg"
  },
  {
    "name": "％％源氏名％％",
    "img": "images/free.jpeg"
  },
  {
    "name": "％％源氏名％％",
    "img": "images/free.jpeg"
  },
  {
    "name": "％％源氏名％％",
    "img": "images/free.jpeg"
  },
  {
    "name": "％％源氏名％％",
    "img": "images/free.jpeg"
  },
  {
    "name": "％％源氏名％％",
    "img": "images/free.jpeg"
  },
  {
    "name": "％％源氏名％％",
    "img": "images/free.jpeg"
  },
  {
    "name": "％％源氏名％％",
    "img": "images/free.jpeg"
  },
  {
    "name": "％％源氏名％％",
    "img": "images/free.jpeg"
  },
  {
    "name": "％％源氏名％％",
    "img": "images/free.jpeg"
  },
  {
    "name": "％％源氏名％％",
    "img": "images/free.jpeg"
  },
  {
    "name": "％％源氏名％％",
    "img": "images/free.jpeg"
  }
]
