[
  {
    "title":  "シティヘブンネット渋谷",
    "link": "#",
    "id": "●●●●●●●●●●●●●●●●●●●●●●●",
    "pass": "●●●●●●●●●●●●●●●●●●●●●●●"
  },
  {
    "title":  "シティヘブンネット新宿",
    "link": "#",
    "id": "●●●●●●●●●●●●●●●●●●●●●●●",
    "pass": "●●●●●●●●●●●●●●●●●●●●●●●"
  },
  {
    "title":  "シティヘブンネット銀座",
    "link": "#",
    "id": "●●●●●●●●●●●●●●●●●●●●●●●",
    "pass": "●●●●●●●●●●●●●●●●●●●●●●●"
  },
  {
    "title":  "シティヘブンネット品川",
    "link": "#",
    "id": "●●●●●●●●●●●●●●●●●●●●●●●",
    "pass": "●●●●●●●●●●●●●●●●●●●●●●●"
  },
  {
  "title":  "高級デリヘルJP",
  "link": "#",
  "id": "●●●●●●●●●●●●●●●●●●●●●●●",
  "pass": "●●●●●●●●●●●●●●●●●●●●●●●"
  }
]
