[
  {
    "name": "Anemone渋谷店",
    "inner": [
      {
        "left": "60分",
        "right": "15000円"
      },
      {
        "left": "75分",
        "right": "17500円"
      },
      {
        "left": "90分",
        "right": "20000円"
      },
      {
        "left": "120分",
        "right": "24000円"
      },
      {
        "left": "本指名",
        "right": "3000円",
        "class": "last"
      }
    ]
  },
  {
    "name": "Anemone新宿店",
    "inner": [
      {
        "left": "60分",
        "right": "15000円"
      },
      {
        "left": "75分",
        "right": "17500円"
      },
      {
        "left": "90分",
        "right": "20000円"
      },
      {
        "left": "120分",
        "right": "24000円"
      },
      {
        "left": "本指名",
        "right": "3000円",
        "class": "last"
      }
    ]
  },
  {
    "name": "宝石",
    "inner": [
      {
        "left": "75分",
        "right": "12000円"
      },
      {
        "left": "90分",
        "right": "15000円"
      },
      {
        "left": "120分",
        "right": "20000円"
      },
      {
        "left": "150分",
        "right": "25000円"
      },
      {
        "left": "本指名",
        "right": "3000円",
        "class": "last"
      }
    ]
  },
  {
    "name": "vellugue(ヴェルージュ)",
    "inner": [
      {
        "left": "90分",
        "right": "34000円"
      },
      {
        "left": "120分",
        "right": "43000円"
      },
      {
        "left": "150分",
        "right": "53000円"
      },
      {
        "left": "180分",
        "right": "65000円"
      },
      {
        "left": "本指名",
        "right": "5000円",
        "class": "last"
      }
    ]
  },
  {
    "name": "LUCIO(ルチオ)",
    "inner": [
      {
        "left": "90分",
        "right": "34000円"
      },
      {
        "left": "120分",
        "right": "43000円"
      },
      {
        "left": "150分",
        "right": "53000円"
      },
      {
        "left": "180分",
        "right": "65000円"
      },
      {
        "left": "本指名",
        "right": "5000円",
        "class": "last"
      }
    ]
  }
]
